module github.com/wowchemy/starter-academic

go 1.15

require (
	github.com/wowchemy/wowchemy-hugo-modules/netlify-cms-academic v0.0.0-20210120025205-e0ae7c979cda
	github.com/wowchemy/wowchemy-hugo-modules/wowchemy v0.0.0-20210120025205-e0ae7c979cda
)
